Working with Data - Assignment 1
…
Stillorgan Road
21204

Navan Road
12729

Lucan Road
12624

Howth Road
10963

## # A tibble: 119 x 4
## # Groups:   route_id [119]
##       route_id                                            route_long_name
##          <chr>                                                      <chr>
##  1  0-33-b12-1                      St. Paul's Crescent - Irish Life Mall
##  2 0-33X-b12-1                      Barnageeragh Road - Huguenot Cemetery
##  3  0-65-b12-1                            Valleymount Road - Hawkin House
##  4 0-84X-b12-1                                    Sea Road - Fleet Street
##  5 0-67X-b12-1               Salesian College - University College Dublin
##  6  0-84-b12-1                                   Sea Road - Frascati Road
##  7 0-66X-b12-1                      Kingsbury - University College Dublin
##  8  0-13-b12-1                                 Business Park - Bus Garage
##  9 0-220-b12-1                              FS Centre - Shangan Crescent
## 10  0-86-b12-1 Cholaiste Mhuire - Rochestown Avenue Opposite Granitefield
## # ... with 109 more rows, and 2 more variables: min_dist_traveled <dbl>,
## #   max_dist_traveled <dbl>
…
